<?xml version="1.0" encoding="UTF-8" standalone="no"?>
<!-- Created with Inkscape (http://www.inkscape.org/) -->

<svg
   xmlns:dc="http://purl.org/dc/elements/1.1/"
   xmlns:cc="http://creativecommons.org/ns#"
   xmlns:rdf="http://www.w3.org/1999/02/22-rdf-syntax-ns#"
   xmlns:svg="http://www.w3.org/2000/svg"
   xmlns="http://www.w3.org/2000/svg"
   xmlns:xlink="http://www.w3.org/1999/xlink"
   xmlns:sodipodi="http://sodipodi.sourceforge.net/DTD/sodipodi-0.dtd"
   xmlns:inkscape="http://www.inkscape.org/namespaces/inkscape"
   width="400"
   height="200"
   viewBox="0 0 400 200"
   id="svg2"
   version="1.1"
   inkscape:version="0.91 r13725"
   sodipodi:docname="develop-app.svg"
   inkscape:export-filename="develop-app.png"
   inkscape:export-xdpi="180"
   inkscape:export-ydpi="180">
  <defs
     id="defs4">
    <linearGradient
       id="linearGradient4256">
      <stop
         id="stop4258"
         offset="0"
         style="stop-color:#8cbdf8;stop-opacity:1;" />
      <stop
         id="stop4260"
         offset="1"
         style="stop-color:#d5e8ff;stop-opacity:1;" />
    </linearGradient>
    <linearGradient
       id="linearGradient4232">
      <stop
         id="stop4234-0"
         offset="0"
         style="stop-color:#3889e9;stop-opacity:1" />
      <stop
         id="stop4236"
         offset="1"
         style="stop-color:#5ea5fb;stop-opacity:1" />
    </linearGradient>
    <clipPath
       id="clipPath4799"
       clipPathUnits="userSpaceOnUse">
      <path
         style="opacity:1;fill:#313437;fill-opacity:1;stroke:none;stroke-width:0.1;stroke-linecap:round;stroke-linejoin:miter;stroke-miterlimit:4;stroke-dasharray:none;stroke-opacity:0.29943501"
         d="M 99.999998,862.36218 A 89.999956,89.999956 0 0 0 9.9999931,952.36217 89.999956,89.999956 0 0 0 99.999998,1042.3622 89.999956,89.999956 0 0 0 190,952.36217 89.999956,89.999956 0 0 0 99.999998,862.36218 Z m 0,64.00002 A 25.999959,25.999959 0 0 1 126,952.36217 25.999959,25.999959 0 0 1 99.999998,978.36222 25.999959,25.999959 0 0 1 74.000002,952.36217 25.999959,25.999959 0 0 1 99.999998,926.3622 Z m 0,6 A 19.99996,19.99996 0 0 0 80.000001,952.36217 19.99996,19.99996 0 0 0 99.999998,972.36222 19.99996,19.99996 0 0 0 120,952.36217 19.99996,19.99996 0 0 0 99.999998,932.3622 Z m 0,10.00003 A 9.9999603,9.9999603 0 0 1 110,952.36217 9.9999603,9.9999603 0 0 1 99.999998,962.3622 a 9.9999603,9.9999603 0 0 1 -9.999995,-10.00003 9.9999603,9.9999603 0 0 1 9.999995,-9.99994 z"
         id="path4801"
         inkscape:connector-curvature="0" />
    </clipPath>
    <clipPath
       id="clipPath4799-9"
       clipPathUnits="userSpaceOnUse">
      <path
         style="opacity:1;fill:#313437;fill-opacity:1;stroke:none;stroke-width:0.1;stroke-linecap:round;stroke-linejoin:miter;stroke-miterlimit:4;stroke-dasharray:none;stroke-opacity:0.29943501"
         d="M 99.999998,862.36218 A 89.999956,89.999956 0 0 0 9.9999931,952.36217 89.999956,89.999956 0 0 0 99.999998,1042.3622 89.999956,89.999956 0 0 0 190,952.36217 89.999956,89.999956 0 0 0 99.999998,862.36218 Z m 0,64.00002 A 25.999959,25.999959 0 0 1 126,952.36217 25.999959,25.999959 0 0 1 99.999998,978.36222 25.999959,25.999959 0 0 1 74.000002,952.36217 25.999959,25.999959 0 0 1 99.999998,926.3622 Z m 0,6 A 19.99996,19.99996 0 0 0 80.000001,952.36217 19.99996,19.99996 0 0 0 99.999998,972.36222 19.99996,19.99996 0 0 0 120,952.36217 19.99996,19.99996 0 0 0 99.999998,932.3622 Z m 0,10.00003 A 9.9999603,9.9999603 0 0 1 110,952.36217 9.9999603,9.9999603 0 0 1 99.999998,962.3622 a 9.9999603,9.9999603 0 0 1 -9.999995,-10.00003 9.9999603,9.9999603 0 0 1 9.999995,-9.99994 z"
         id="path4801-9"
         inkscape:connector-curvature="0" />
    </clipPath>
    <clipPath
       id="clipPath4799-5"
       clipPathUnits="userSpaceOnUse">
      <path
         style="opacity:1;fill:#313437;fill-opacity:1;stroke:none;stroke-width:0.1;stroke-linecap:round;stroke-linejoin:miter;stroke-miterlimit:4;stroke-dasharray:none;stroke-opacity:0.29943501"
         d="M 99.999998,862.36218 A 89.999956,89.999956 0 0 0 9.9999931,952.36217 89.999956,89.999956 0 0 0 99.999998,1042.3622 89.999956,89.999956 0 0 0 190,952.36217 89.999956,89.999956 0 0 0 99.999998,862.36218 Z m 0,64.00002 A 25.999959,25.999959 0 0 1 126,952.36217 25.999959,25.999959 0 0 1 99.999998,978.36222 25.999959,25.999959 0 0 1 74.000002,952.36217 25.999959,25.999959 0 0 1 99.999998,926.3622 Z m 0,6 A 19.99996,19.99996 0 0 0 80.000001,952.36217 19.99996,19.99996 0 0 0 99.999998,972.36222 19.99996,19.99996 0 0 0 120,952.36217 19.99996,19.99996 0 0 0 99.999998,932.3622 Z m 0,10.00003 A 9.9999603,9.9999603 0 0 1 110,952.36217 9.9999603,9.9999603 0 0 1 99.999998,962.3622 a 9.9999603,9.9999603 0 0 1 -9.999995,-10.00003 9.9999603,9.9999603 0 0 1 9.999995,-9.99994 z"
         id="path4801-8"
         inkscape:connector-curvature="0" />
    </clipPath>
    <linearGradient
       inkscape:collect="always"
       xlink:href="#linearGradient4564"
       id="linearGradient4562"
       x1="1731"
       y1="608.375"
       x2="1731"
       y2="661.38446"
       gradientUnits="userSpaceOnUse"
       gradientTransform="matrix(0.70710678,-0.35355322,0.70710678,0.35355322,-1518.156,599.08144)" />
    <linearGradient
       id="linearGradient4564">
      <stop
         id="stop4566"
         offset="0"
         style="stop-color:#fcfcfc;stop-opacity:1;" />
      <stop
         id="stop4568"
         offset="1"
         style="stop-color:#fcfcfc;stop-opacity:1" />
    </linearGradient>
    <linearGradient
       id="linearGradient4948-9-4-6-0">
      <stop
         style="stop-color:#4d575e;stop-opacity:1"
         offset="0"
         id="stop4950-70-9-0-3" />
      <stop
         style="stop-color:#475057;stop-opacity:1;"
         offset="1"
         id="stop4952-12-4-4-0" />
    </linearGradient>
    <linearGradient
       inkscape:collect="always"
       xlink:href="#linearGradient4948-9-4-6-0"
       id="linearGradient4757"
       x1="-210"
       y1="1179.8622"
       x2="600"
       y2="1179.8622"
       gradientUnits="userSpaceOnUse"
       gradientTransform="matrix(0.70710678,-0.35355322,0.70710678,0.35355322,-935.49093,-115.09156)" />
  </defs>
  <sodipodi:namedview
     id="base"
     pagecolor="#ffffff"
     bordercolor="#666666"
     borderopacity="1.0"
     inkscape:pageopacity="0.0"
     inkscape:pageshadow="2"
     inkscape:zoom="1"
     inkscape:cx="-38.167"
     inkscape:cy="48.614711"
     inkscape:document-units="px"
     inkscape:current-layer="layer1"
     showgrid="false"
     units="px"
     inkscape:window-width="1364"
     inkscape:window-height="857"
     inkscape:window-x="433"
     inkscape:window-y="364"
     inkscape:window-maximized="0"
     inkscape:snap-bbox="true"
     inkscape:object-nodes="true">
    <inkscape:grid
       type="xygrid"
       id="grid4136" />
  </sodipodi:namedview>
  <metadata
     id="metadata7">
    <rdf:RDF>
      <cc:Work
         rdf:about="">
        <dc:format>image/svg+xml</dc:format>
        <dc:type
           rdf:resource="http://purl.org/dc/dcmitype/StillImage" />
        <dc:title />
      </cc:Work>
    </rdf:RDF>
  </metadata>
  <g
     inkscape:label="Layer 1"
     inkscape:groupmode="layer"
     id="layer1"
     transform="translate(0,-852.36216)">
    <rect
       style="opacity:1;fill:#2c3e50;fill-opacity:1;stroke:none;stroke-width:1;stroke-linecap:round;stroke-linejoin:bevel;stroke-miterlimit:4;stroke-dasharray:none;stroke-opacity:1"
       id="rect4138"
       width="400"
       height="200"
       x="0"
       y="852.36218" />
    <g
       id="g5472"
       style="opacity:0.2;fill:#3daefd">
      <path
         id="path5065"
         transform="translate(0,852.36216)"
         d="M 48.306641 0 L 0 24.152344 L 0 25.269531 L 50.539062 0 L 48.306641 0 z M 108.30664 0 L 0 54.152344 L 0 55.269531 L 110.53906 0 L 108.30664 0 z M 168.30664 0 L 0 84.152344 L 0 85.269531 L 170.53906 0 L 168.30664 0 z M 228.30664 0 L 0 114.15234 L 0 115.26953 L 230.53906 0 L 228.30664 0 z M 288.30664 0 L 0 144.15234 L 0 145.26953 L 290.53906 0 L 288.30664 0 z M 348.30664 0 L 0 174.15234 L 0 175.26953 L 350.53906 0 L 348.30664 0 z M 400 4.1523438 L 8.3046875 200 L 10.541016 200 L 400 5.2695312 L 400 4.1523438 z M 400 34.152344 L 68.304688 200 L 70.541016 200 L 400 35.269531 L 400 34.152344 z M 400 64.152344 L 128.30469 200 L 130.54102 200 L 400 65.269531 L 400 64.152344 z M 400 94.152344 L 188.30469 200 L 190.54102 200 L 400 95.269531 L 400 94.152344 z M 400 124.15234 L 248.30469 200 L 250.54102 200 L 400 125.26953 L 400 124.15234 z "
         style="color:#000000;font-style:normal;font-variant:normal;font-weight:normal;font-stretch:normal;font-size:medium;line-height:normal;font-family:sans-serif;text-indent:0;text-align:start;text-decoration:none;text-decoration-line:none;text-decoration-style:solid;text-decoration-color:#000000;letter-spacing:normal;word-spacing:normal;text-transform:none;direction:ltr;block-progression:tb;writing-mode:lr-tb;baseline-shift:baseline;text-anchor:start;white-space:normal;clip-rule:nonzero;display:inline;overflow:visible;visibility:visible;opacity:1;isolation:auto;mix-blend-mode:normal;color-interpolation:sRGB;color-interpolation-filters:linearRGB;solid-color:#000000;solid-opacity:1;fill:#3daefd;fill-opacity:1;fill-rule:evenodd;stroke:none;stroke-width:1;stroke-linecap:butt;stroke-linejoin:miter;stroke-miterlimit:4;stroke-dasharray:none;stroke-dashoffset:0;stroke-opacity:1;color-rendering:auto;image-rendering:auto;shape-rendering:auto;text-rendering:auto;enable-background:accumulate" />
      <path
         id="path5065-3"
         transform="translate(0,852.36216)"
         d="M 24.460938 0 L 400 187.76953 L 400 186.65234 L 26.693359 0 L 24.460938 0 z M 84.460938 0 L 400 157.76953 L 400 156.65234 L 86.693359 0 L 84.460938 0 z M 144.46094 0 L 400 127.76953 L 400 126.65234 L 146.69336 0 L 144.46094 0 z M 204.46094 0 L 400 97.769531 L 400 96.652344 L 206.69336 0 L 204.46094 0 z M 264.46094 0 L 400 67.769531 L 400 66.652344 L 266.69336 0 L 264.46094 0 z M 324.46094 0 L 400 37.769531 L 400 36.652344 L 326.69336 0 L 324.46094 0 z M 384.46094 0 L 400 7.7695312 L 400 6.6523438 L 386.69336 0 L 384.46094 0 z M 0 16.652344 L 0 17.769531 L 364.45898 200 L 366.69531 200 L 0 16.652344 z M 0 46.652344 L 0 47.769531 L 304.45898 200 L 306.69531 200 L 0 46.652344 z M 0 76.652344 L 0 77.769531 L 244.45898 200 L 246.69531 200 L 0 76.652344 z M 0 106.65234 L 0 107.76953 L 184.45898 200 L 186.69531 200 L 0 106.65234 z M 0 136.65234 L 0 137.76953 L 124.45898 200 L 126.69531 200 L 0 136.65234 z M 0 166.65234 L 0 167.76953 L 64.458984 200 L 66.695312 200 L 0 166.65234 z "
         style="color:#000000;font-style:normal;font-variant:normal;font-weight:normal;font-stretch:normal;font-size:medium;line-height:normal;font-family:sans-serif;text-indent:0;text-align:start;text-decoration:none;text-decoration-line:none;text-decoration-style:solid;text-decoration-color:#000000;letter-spacing:normal;word-spacing:normal;text-transform:none;direction:ltr;block-progression:tb;writing-mode:lr-tb;baseline-shift:baseline;text-anchor:start;white-space:normal;clip-rule:nonzero;display:inline;overflow:visible;visibility:visible;opacity:1;isolation:auto;mix-blend-mode:normal;color-interpolation:sRGB;color-interpolation-filters:linearRGB;solid-color:#000000;solid-opacity:1;fill:#3daefd;fill-opacity:1;fill-rule:evenodd;stroke:none;stroke-width:1;stroke-linecap:butt;stroke-linejoin:miter;stroke-miterlimit:4;stroke-dasharray:none;stroke-dashoffset:0;stroke-opacity:1;color-rendering:auto;image-rendering:auto;shape-rendering:auto;text-rendering:auto;enable-background:accumulate" />
    </g>
    <path
       style="fill:#ffffff;fill-opacity:1;stroke:none"
       d="M 338.9707 97.875 L 134.7207 200 L 400 200 L 400 128.38867 L 338.9707 97.875 z "
       transform="translate(0,852.36216)"
       id="path10126-0" />
    <path
       style="fill:url(#linearGradient4757);fill-opacity:1;stroke:none"
       d="M 307.85938 82.732422 C 307.34814 82.732422 306.83705 82.829491 306.44531 83.025391 L 72.496094 200 L 133.30664 200 L 338.26367 97.521484 L 309.27344 83.025391 C 308.8817 82.829491 308.37061 82.732422 307.85938 82.732422 z "
       transform="translate(0,852.36216)"
       id="rect6685-3-5-9-3" />
    <path
       style="fill:#3daee9;fill-opacity:1;stroke:none"
       d="M 338.26367 97.521484 L 133.30664 200 L 134.7207 200 L 338.9707 97.875 L 338.26367 97.521484 z "
       transform="translate(0,852.36216)"
       id="rect6811-76-2" />
    <path
       style="color:#000000;font-style:normal;font-variant:normal;font-weight:normal;font-stretch:normal;font-size:medium;line-height:normal;font-family:Sans;-inkscape-font-specification:Sans;text-indent:0;text-align:start;text-decoration:none;text-decoration-line:none;letter-spacing:normal;word-spacing:normal;text-transform:none;direction:ltr;block-progression:tb;writing-mode:lr-tb;baseline-shift:baseline;text-anchor:start;display:inline;overflow:visible;visibility:visible;fill:#192629;fill-opacity:1;stroke:none;stroke-width:1px;marker:none;enable-background:accumulate;opacity:0.4;"
       d="m 282.6239,964.0262 0.97234,0 0,-2.9389 5.87775,0 7e-5,-0.4862 -6.85009,10e-5 z"
       id="path6604-8-26-2-0-2"
       inkscape:connector-curvature="0"
       sodipodi:nodetypes="ccccccc" />
    <g
       id="g11378-1"
       transform="matrix(0.70710678,-0.35355322,0.70710678,0.35355322,-1538.653,1861.9234)"
       style="fill:#192629;opacity:0.4;">
      <path
         inkscape:connector-curvature="0"
         id="path8894-2-1"
         d="m 2597.5,6.362183 c -5.2467,0 -9.5,4.253295 -9.5,9.5 0,5.246705 4.2533,9.5 9.5,9.5 5.2467,0 9.5,-4.253295 9.5,-9.5 0,-5.246705 -4.2533,-9.5 -9.5,-9.5 z"
         style="fill:#192629;fill-opacity:1;stroke:none"
         sodipodi:nodetypes="sssss" />
      <path
         inkscape:connector-curvature="0"
         id="path6604-6-4-05-1"
         d="m 2593.3438,11.01841 -0.6876,0.6875 4.1563,4.15625 -4.1563,4.15625 0.6876,0.6875 4.1562,-4.15625 4.1562,4.15625 0.6876,-0.6875 -4.1563,-4.15625 4.1563,-4.15625 -0.6876,-0.6875 -4.1562,4.15625 -4.1562,-4.15625 z"
         style="color:#000000;font-style:normal;font-variant:normal;font-weight:normal;font-stretch:normal;font-size:medium;line-height:normal;font-family:Sans;-inkscape-font-specification:Sans;text-indent:0;text-align:start;text-decoration:none;text-decoration-line:none;letter-spacing:normal;word-spacing:normal;text-transform:none;direction:ltr;block-progression:tb;writing-mode:lr-tb;baseline-shift:baseline;text-anchor:start;display:inline;overflow:visible;visibility:visible;fill:#192629;fill-opacity:1;stroke:none;stroke-width:1px;marker:none;enable-background:accumulate" />
    </g>
    <path
       style="fill:#eff0f1;fill-opacity:1;stroke:none"
       d="M 338.9707 97.875 L 134.7207 200 L 195.5332 200 L 369.37695 113.07812 L 338.9707 97.875 z "
       transform="translate(0,852.36216)"
       id="rect6685-3-4-3-5-2-7" />
    <path
       style="opacity:0.2;fill:#000000;fill-opacity:1;stroke:none"
       d="m 217.79686,1015.4813 c -0.51124,0 -1.02231,0.097 -1.41405,0.293 l -73.17578,36.5879 46.67188,0 49.83815,-24.9198 c 0.78347,-0.3918 0.78348,-1.0224 1e-5,-1.4141 l -20.50684,-10.2534 c -0.39174,-0.1959 -0.90285,-0.293 -1.41408,-0.293 z"
       id="path7934-7-0-9-9-9-6-4-0-5-2-3-7-1"
       inkscape:connector-curvature="0" />
    <g
       id="g9055-0-8-6-2-6-3-8"
       transform="matrix(0.70710678,-0.35355322,0.70710678,0.35355322,-531.73297,1035.316)">
      <g
         transform="translate(-1009,-109.01282)"
         id="g5629-5-1-1-1-0-3-9-5-8-3-9">
        <path
           sodipodi:nodetypes="sssssssss"
           inkscape:connector-curvature="0"
           id="path7934-7-0-9-9-9-6-4-0-5-2"
           d="m 1696,610.375 c -1.108,0 -2,0.892 -2,2 l 0,29 c 0,1.108 0.892,2 2,2 l 36,0 c 1.108,0 2,-0.892 2,-2 l 0,-29 c 0,-1.108 -0.892,-2 -2,-2 z"
           style="opacity:0.2;fill:#000000;fill-opacity:1;stroke:none;" />
        <path
           id="path7934-7-7-9-6-2-2-9-0-9-1"
           d="m 1710.1421,594.73286 c -1.3764,0 -2.5,1.12365 -2.5,2.5 l 0,29 c 0,1.37635 1.1236,2.5 2.5,2.5 l 36,0 c 1.3764,0 2.5,-1.12365 2.5,-2.5 l 0,-29 c 0,-1.37635 -1.1236,-2.5 -2.5,-2.5 z m 0,0.5 36,0 c 1.108,0 2,0.892 2,2 l 0,29 c 0,1.108 -0.892,2 -2,2 l -36,0 c -1.108,0 -2,-0.892 -2,-2 l 0,-29 c 0,-1.108 0.892,-2 2,-2 z"
           style="color:#000000;font-style:normal;font-variant:normal;font-weight:normal;font-stretch:normal;font-size:medium;line-height:normal;font-family:Sans;-inkscape-font-specification:Sans;text-indent:0;text-align:start;text-decoration:none;text-decoration-line:none;letter-spacing:normal;word-spacing:normal;text-transform:none;direction:ltr;block-progression:tb;writing-mode:lr-tb;baseline-shift:baseline;text-anchor:start;display:inline;overflow:visible;visibility:visible;opacity:0.4;fill:#000000;fill-opacity:1;fill-rule:nonzero;stroke:none;stroke-width:1;marker:none;enable-background:accumulate"
           inkscape:connector-curvature="0"
           sodipodi:nodetypes="ssssssssssssssssss" />
        <path
           sodipodi:nodetypes="sssssssss"
           inkscape:connector-curvature="0"
           id="path7934-7-8-5-8-9-5-6-8-9"
           d="m 1724.2842,581.09072 c -1.108,0 -2,0.892 -2,2 l 0,29 c 0,1.108 0.892,2 2,2 l 36,0 c 1.108,0 2,-0.892 2,-2 l 0,-29 c 0,-1.108 -0.892,-2 -2,-2 z"
           style="fill:#fcfcfc;fill-opacity:1;stroke:none" />
      </g>
    </g>
    <g
       transform="matrix(0.70710678,-0.35355322,0.70710678,0.35355322,-1457.1557,1048.0316)"
       id="g6560-3">
      <g
         id="g8073-4">
        <path
           style="opacity:0.2;fill:#31363b;fill-opacity:1;stroke:none"
           d="M 378.57031 122.24414 C 377.29222 122.24414 376.01255 122.48884 375.0332 122.97852 C 373.07452 123.95786 373.07452 125.53433 375.0332 126.51367 L 400 138.99609 L 400 131.92578 L 382.10547 122.97852 C 381.12613 122.48884 379.84841 122.24414 378.57031 122.24414 z "
           transform="matrix(0.70710678,0.70710678,-1.4142142,1.4142142,1307.0832,753.64617)"
           id="rect6525-6" />
        <path
           style="fill:#3daee9;fill-opacity:1;stroke:none"
           d="M 378.57031 122.24414 C 377.29222 122.24414 376.01255 122.48884 375.0332 122.97852 C 373.07452 123.95786 373.07452 125.53433 375.0332 126.51367 L 400 138.99609 L 400 131.92578 L 382.10547 122.97852 C 381.12613 122.48884 379.84841 122.24414 378.57031 122.24414 z "
           transform="matrix(0.70710678,0.70710678,-1.4142142,1.4142142,1307.0832,753.64617)"
           id="rect6525-2-5" />
      </g>
      <path
         style="color:#000000;font-style:normal;font-variant:normal;font-weight:normal;font-stretch:normal;font-size:medium;line-height:normal;font-family:Sans;-inkscape-font-specification:Sans;text-indent:0;text-align:start;text-decoration:none;text-decoration-line:none;letter-spacing:normal;word-spacing:normal;text-transform:none;direction:ltr;block-progression:tb;writing-mode:lr-tb;baseline-shift:baseline;text-anchor:start;display:inline;overflow:visible;visibility:visible;fill:#31363b;fill-opacity:1;stroke:none;stroke-width:1px;marker:none;enable-background:accumulate"
         d="m 1398.3554,1184.0335 -0.3438,0.375 -5,5 a 0.50005,0.50005 0 1 0 0.6876,0.6875 l 4.6562,-4.6563 4.6562,4.6563 a 0.50005,0.50005 0 1 0 0.6876,-0.6875 l -5,-5 -0.3438,-0.375 z"
         id="path4483"
         inkscape:connector-curvature="0" />
      <path
         style="color:#000000;font-style:normal;font-variant:normal;font-weight:normal;font-stretch:normal;font-size:medium;line-height:normal;font-family:Sans;-inkscape-font-specification:Sans;text-indent:0;text-align:start;text-decoration:none;text-decoration-line:none;letter-spacing:normal;word-spacing:normal;text-transform:none;direction:ltr;block-progression:tb;writing-mode:lr-tb;baseline-shift:baseline;text-anchor:start;display:inline;overflow:visible;visibility:visible;fill:#31363b;fill-opacity:1;stroke:none;stroke-width:1px;marker:none;enable-background:accumulate"
         d="m 1398.3554,1599.335 -0.3438,-0.375 -5,-5 a 0.50005,0.50005 0 1 1 0.6876,-0.6875 l 4.6562,4.6563 4.6562,-4.6563 a 0.50005,0.50005 0 1 1 0.6876,0.6875 l -5,5 -0.3438,0.375 z"
         id="path4483-2"
         inkscape:connector-curvature="0" />
    </g>
    <path
       style="fill:url(#linearGradient4562);fill-opacity:1;stroke:none"
       d="M 217.34961 162.63477 C 216.83837 162.63477 216.32728 162.73384 215.93555 162.92969 L 141.79492 200 L 188.46094 200 L 239.26953 174.5957 C 240.05301 174.2039 240.05301 173.57334 239.26953 173.18164 L 218.76367 162.92969 C 218.37193 162.73384 217.86085 162.63477 217.34961 162.63477 z "
       transform="translate(0,852.36216)"
       id="path7934-7-8-5-8-9-5-6" />
    <path
       style="color:#000000;font-style:normal;font-variant:normal;font-weight:normal;font-stretch:normal;font-size:medium;line-height:normal;font-family:Sans;-inkscape-font-specification:Sans;text-indent:0;text-align:start;text-decoration:none;text-decoration-line:none;letter-spacing:normal;word-spacing:normal;text-transform:none;direction:ltr;block-progression:tb;writing-mode:lr-tb;baseline-shift:baseline;text-anchor:start;display:inline;overflow:visible;visibility:visible;opacity:0.4;fill:#000000;fill-opacity:1;fill-rule:nonzero;stroke:none;stroke-width:1;marker:none;enable-background:accumulate"
       d="M 217.34961 162.38672 C 216.70904 162.38672 216.06866 162.50865 215.58203 162.75195 L 141.08594 200 L 141.79492 200 L 215.93555 162.92969 C 216.71902 162.53799 217.98019 162.53799 218.76367 162.92969 L 239.26953 173.18164 C 240.05301 173.57334 240.05301 174.2039 239.26953 174.5957 L 188.46094 200 L 189.16992 200 L 239.62305 174.77344 C 240.59631 174.28684 240.59627 173.49246 239.62305 173.00586 L 219.11719 162.75195 C 218.63057 162.50865 217.99018 162.38672 217.34961 162.38672 z "
       transform="translate(0,852.36216)"
       id="path7934-7-7-9-6-2-2-9-0" />
    <path
       style="color:#000000;font-style:normal;font-variant:normal;font-weight:normal;font-stretch:normal;font-size:medium;line-height:normal;font-family:Sans;-inkscape-font-specification:Sans;text-indent:0;text-align:start;text-decoration:none;text-decoration-line:none;letter-spacing:normal;word-spacing:normal;text-transform:none;direction:ltr;block-progression:tb;writing-mode:lr-tb;baseline-shift:baseline;text-anchor:start;display:inline;overflow:visible;visibility:visible;fill:#31363b;fill-opacity:1;stroke:none;stroke-width:1px;marker:none;enable-background:accumulate"
       d="m 220.58975,1027.5184 -0.50827,-0.011 -7.07106,0 a 0.50005,0.25002488 0 1 1 7e-5,-0.4861 l 6.58493,0 -7e-5,-3.2925 a 0.50005,0.25002488 0 1 1 0.97234,0 l 0,3.5355 0.0221,0.2542 z"
       id="path4483-0"
       inkscape:connector-curvature="0" />
    <g
       inkscape:label="Capa 1"
       id="layer1-687"
       transform="matrix(0.70710678,-0.35355322,0.70710678,0.35355322,-502.43895,919.049)">
      <path
         inkscape:connector-curvature="0"
         style="fill:#4d4d4d;fill-rule:evenodd;stroke:none"
         d="M 19.513672,4.0078125 A 2,9 45 0 0 12.068359,9.1054688 2,9 45 0 0 8.5253906,13.21875 c 1.07606,0.34264 1.9151724,1.181743 2.2578124,2.257812 A 2,9 45 0 0 14.896484,11.933594 2,9 45 0 0 19.845703,4.15625 2,9 45 0 0 19.513672,4.0078125 Z M 8,14.664062 C 3.99999,15.735863 7,18.26795 4,20 c 4.00339,0 6,-2.000818 6,-3.335938 0,-0.66488 0.0676,-1.88944 -2,-2 z"
         transform="translate(550.28572,606.6479)"
         id="path4123" />
    </g>
    <g
       id="g9055-0-8-6-2-6-3-8-3"
       transform="matrix(0.70710678,-0.35355322,0.70710678,0.35355322,-570.62384,1054.7614)">
      <g
         transform="translate(-1009,-109.01282)"
         id="g5629-5-1-1-1-0-3-9-5-8-3-9-1">
        <path
           sodipodi:nodetypes="sssssssss"
           inkscape:connector-curvature="0"
           id="path7934-7-0-9-9-9-6-4-0-5-2-3"
           d="m 1706,610.375 c -1.108,0 -2,0.892 -2,2 l 0,29 c 0,1.108 0.892,2 2,2 l 36,0 c 1.108,0 2,-0.892 2,-2 l 0,-29 c 0,-1.108 -0.892,-2 -2,-2 z"
           style="opacity:0.2;fill:#000000;fill-opacity:1;stroke:none;" />
        <path
           id="path7934-7-7-9-6-2-2-9-0-9-1-6"
           d="m 1710.2426,604.63237 c -1.3764,0 -2.5,1.12365 -2.5,2.5 l 0,29 c 0,1.37635 1.1236,2.5 2.5,2.5 l 36,0 c 1.3764,0 2.5,-1.12365 2.5,-2.5 l 0,-29 c 0,-1.37635 -1.1236,-2.5 -2.5,-2.5 z m 0,0.5 36,0 c 1.108,0 2,0.892 2,2 l 0,29 c 0,1.108 -0.892,2 -2,2 l -36,0 c -1.108,0 -2,-0.892 -2,-2 l 0,-29 c 0,-1.108 0.892,-2 2,-2 z"
           style="color:#000000;font-style:normal;font-variant:normal;font-weight:normal;font-stretch:normal;font-size:medium;line-height:normal;font-family:Sans;-inkscape-font-specification:Sans;text-indent:0;text-align:start;text-decoration:none;text-decoration-line:none;letter-spacing:normal;word-spacing:normal;text-transform:none;direction:ltr;block-progression:tb;writing-mode:lr-tb;baseline-shift:baseline;text-anchor:start;display:inline;overflow:visible;visibility:visible;opacity:0.4;fill:#000000;fill-opacity:1;fill-rule:nonzero;stroke:none;stroke-width:1;marker:none;enable-background:accumulate"
           inkscape:connector-curvature="0"
           sodipodi:nodetypes="ssssssssssssssssss" />
        <path
           sodipodi:nodetypes="sssssssss"
           inkscape:connector-curvature="0"
           id="path7934-7-8-5-8-9-5-6-8-9-0"
           d="m 1715.8994,599.47553 c -1.108,0 -2,0.892 -2,2 l 0,29 c 0,1.108 0.892,2 2,2 l 36,0 c 1.108,0 2,-0.892 2,-2 l 0,-29 c 0,-1.108 -0.892,-2 -2,-2 z"
           style="fill:#fcfcfc;fill-opacity:1;stroke:none" />
      </g>
    </g>
    <g
       inkscape:label="Capa 1"
       id="layer1-936"
       transform="matrix(0.70710678,-0.35355322,0.70710678,0.35355322,-384.75577,938.0893)"
       style="fill:#4d4d4d;fill-opacity:1">
      <path
         inkscape:connector-curvature="0"
         style="fill:#4d4d4d;fill-opacity:1;stroke:none"
         d="m 3,3 0,7 7,0 0,-7 -7,0 z M 4,4 9,4 9,9 4,9 4,4 Z"
         transform="translate(421.71429,525.79074)"
         id="rect4094" />
      <rect
         style="fill:#4d4d4d;fill-opacity:1;stroke:none"
         id="rect4214-7"
         width="0.99999559"
         height="6.0000296"
         x="430.71429"
         y="535.79071" />
      <rect
         style="fill:#4d4d4d;fill-opacity:1;stroke:none"
         id="rect4216-6"
         width="2"
         height="1"
         x="431.71429"
         y="531.79071" />
      <rect
         style="fill:#4d4d4d;fill-opacity:1;stroke:none"
         id="rect4218-3"
         width="2"
         height="1"
         x="431.71429"
         y="540.79095" />
      <path
         id="path4220"
         d="m 433.71429,528.79074 0,7 7,0 0,-7 -7,0 z m 1,1 5,0 0,5 -5,0 0,-5 z"
         style="fill:#4d4d4d;fill-opacity:1;stroke:none"
         inkscape:connector-curvature="0" />
      <path
         inkscape:connector-curvature="0"
         style="fill:#4d4d4d;fill-opacity:1;stroke:none"
         d="m 433.71429,537.79074 0,7 7,0 0,-7 -7,0 z"
         id="path4226" />
    </g>
    <g
       id="g9055-0-8-6-2-6-3-8-3-2"
       transform="matrix(0.70710678,-0.35355322,0.70710678,0.35355322,-602.44365,1070.6713)">
      <g
         transform="translate(-1009,-109.01282)"
         id="g5629-5-1-1-1-0-3-9-5-8-3-9-1-2">
        <path
           sodipodi:nodetypes="sssssssss"
           inkscape:connector-curvature="0"
           id="path7934-7-0-9-9-9-6-4-0-5-2-3-7"
           d="m 1706,610.375 c -1.108,0 -2,0.892 -2,2 l 0,29 c 0,1.108 0.892,2 2,2 l 36,0 c 1.108,0 2,-0.892 2,-2 l 0,-29 c 0,-1.108 -0.892,-2 -2,-2 z"
           style="opacity:0.2;fill:#000000;fill-opacity:1;stroke:none;" />
        <path
           sodipodi:nodetypes="sssssssss"
           inkscape:connector-curvature="0"
           id="path7934-7-8-5-8-9-5-6-8-9-0-1"
           d="m 1706,609.375 c -1.108,0 -2,0.892 -2,2 l 0,29 c 0,1.108 0.892,2 2,2 l 36,0 c 1.108,0 2,-0.892 2,-2 l 0,-29 c 0,-1.108 -0.892,-2 -2,-2 z"
           style="fill:#3daee9;fill-opacity:1;stroke:none" />
        <path
           id="path7934-7-7-9-6-2-2-9-0-9-1-6-5"
           d="m 1706,608.875 c -1.3764,0 -2.5,1.12365 -2.5,2.5 l 0,29 c 0,1.37635 1.1236,2.5 2.5,2.5 l 36,0 c 1.3764,0 2.5,-1.12365 2.5,-2.5 l 0,-29 c 0,-1.37635 -1.1236,-2.5 -2.5,-2.5 z m 0,0.5 36,0 c 1.108,0 2,0.892 2,2 l 0,29 c 0,1.108 -0.892,2 -2,2 l -36,0 c -1.108,0 -2,-0.892 -2,-2 l 0,-29 c 0,-1.108 0.892,-2 2,-2 z"
           style="color:#000000;font-style:normal;font-variant:normal;font-weight:normal;font-stretch:normal;font-size:medium;line-height:normal;font-family:Sans;-inkscape-font-specification:Sans;text-indent:0;text-align:start;text-decoration:none;text-decoration-line:none;letter-spacing:normal;word-spacing:normal;text-transform:none;direction:ltr;block-progression:tb;writing-mode:lr-tb;baseline-shift:baseline;text-anchor:start;display:inline;overflow:visible;visibility:visible;opacity:0.4;fill:#000000;fill-opacity:1;fill-rule:nonzero;stroke:none;stroke-width:1;marker:none;enable-background:accumulate"
           inkscape:connector-curvature="0"
           sodipodi:nodetypes="ssssssssssssssssss" />
      </g>
    </g>
    <g
       transform="matrix(0.70710678,-0.35355322,0.70710678,0.35355322,-475.05349,636.2125)"
       id="layer1-3"
       inkscape:label="Capa 1"
       style="fill:#31363b;fill-opacity:1">
      <rect
         y="1036.3622"
         x="10"
         height="2"
         width="2"
         id="rect4120-6"
         style="fill:#31363b;fill-opacity:1;stroke:none" />
      <rect
         y="1039.3622"
         x="10"
         height="7"
         width="2"
         id="rect4124-0"
         style="fill:#31363b;fill-opacity:1;stroke:none" />
      <path
         sodipodi:nodetypes="ssssssssss"
         inkscape:connector-curvature="0"
         id="rect4129-6"
         transform="translate(0,1030.3622)"
         d="m 11,3 c -4.432,0 -8,3.568 -8,8 0,4.432 3.568,8 8,8 4.432,0 8,-3.568 8,-8 0,-4.432 -3.568,-8 -8,-8 z m 0,1 c 3.878,0 7,3.122 7,7 0,3.878 -3.122,7 -7,7 C 7.122,18 4,14.878 4,11 4,7.122 7.122,4 11,4 Z"
         style="fill:#31363b;fill-opacity:1;stroke:none" />
    </g>
    <path
       style="color:#000000;font-style:normal;font-variant:normal;font-weight:normal;font-stretch:normal;font-size:medium;line-height:normal;font-family:Sans;-inkscape-font-specification:Sans;text-indent:0;text-align:start;text-decoration:none;text-decoration-line:none;letter-spacing:normal;word-spacing:normal;text-transform:none;direction:ltr;block-progression:tb;writing-mode:lr-tb;baseline-shift:baseline;text-anchor:start;display:inline;overflow:visible;visibility:visible;fill:#eff0f1;fill-opacity:1;stroke:none;stroke-width:1px;marker:none;enable-background:accumulate"
       d="m 282.6239,954.0262 0.97234,0 0,-2.9389 5.87775,0 7e-5,-0.4862 -6.85009,10e-5 z"
       id="path6604-8-26-2-0-2-5"
       inkscape:connector-curvature="0"
       sodipodi:nodetypes="ccccccc" />
    <g
       id="g11378-1-9"
       transform="matrix(0.70710678,-0.35355322,0.70710678,0.35355322,-1538.653,1841.9234)">
      <path
         inkscape:connector-curvature="0"
         id="path8894-2-1-2"
         d="m 2597.5,6.362183 c -5.2467,0 -9.5,4.253295 -9.5,9.5 0,5.246705 4.2533,9.5 9.5,9.5 5.2467,0 9.5,-4.253295 9.5,-9.5 0,-5.246705 -4.2533,-9.5 -9.5,-9.5 z"
         style="fill:#eff0f1;fill-opacity:1;stroke:none"
         sodipodi:nodetypes="sssss" />
      <path
         inkscape:connector-curvature="0"
         id="path6604-6-4-05-1-0"
         d="m 2593.3438,11.01841 -0.6876,0.6875 4.1563,4.15625 -4.1563,4.15625 0.6876,0.6875 4.1562,-4.15625 4.1562,4.15625 0.6876,-0.6875 -4.1563,-4.15625 4.1563,-4.15625 -0.6876,-0.6875 -4.1562,4.15625 -4.1562,-4.15625 z"
         style="color:#000000;font-style:normal;font-variant:normal;font-weight:normal;font-stretch:normal;font-size:medium;line-height:normal;font-family:Sans;-inkscape-font-specification:Sans;text-indent:0;text-align:start;text-decoration:none;text-decoration-line:none;letter-spacing:normal;word-spacing:normal;text-transform:none;direction:ltr;block-progression:tb;writing-mode:lr-tb;baseline-shift:baseline;text-anchor:start;display:inline;overflow:visible;visibility:visible;fill:#4d4d4d;fill-opacity:1;stroke:none;stroke-width:1px;marker:none;enable-background:accumulate" />
    </g>
    <path
       style="color:#000000;font-style:normal;font-variant:normal;font-weight:normal;font-stretch:normal;font-size:medium;line-height:normal;font-family:Sans;-inkscape-font-specification:Sans;text-indent:0;text-align:start;text-decoration:none;text-decoration-line:none;letter-spacing:normal;word-spacing:normal;text-transform:none;direction:ltr;block-progression:tb;writing-mode:lr-tb;baseline-shift:baseline;text-anchor:start;display:inline;overflow:visible;visibility:visible;fill:#fcfcfc;fill-opacity:1;stroke:none;stroke-width:1px;marker:none;enable-background:accumulate"
       d="m 262.60408,971.2078 -7e-5,0.4861 6.85016,0 0,-3.425 -0.97234,0 7e-5,2.9389 z"
       id="path6604-6-7-7-4-3-2"
       inkscape:connector-curvature="0"
       sodipodi:nodetypes="ccccccc" />
  </g>
</svg>
